{
  "downloads": {
    "label": "Downloads",
    "icon": "fa6-solid:download",
    "sections": [
      {
        "label": "Editions",
        "description": "Fedora Editions are the official OS editions of Fedora Linux.",
        "links": [
          {
            "label": "Workstation",
            "path": "/workstation",
            "icon": "fa6-solid:desktop",
            "description": "The flagship Fedora edition featuring the latest Gnome desktop. The Linux desktop you've been waiting for."
          },
          {
            "label": "Server",
            "path": "/server",
            "icon": "fa6-solid:server",
            "description": "Run applications on bare metal or the cloud with a Linux server OS packed with the latest open source technology."
          },
          {
            "label": "IoT",
            "path": "/iot",
            "icon": "fa6-solid:microchip",
            "description": "A foundation for Internet of Things and Device Edge ecosystem."
          },
          {
            "label": "CoreOS",
            "path": "/coreos",
            "icon": "fa6-solid:circle",
            "description": "An automatically-updating, minimal operating system for running containerized workloads securely and at scale."
          },
          {
            "label": "Cloud",
            "path": "/cloud",
            "icon": "fa6-solid:cloud",
            "description": "An automatically-updating, minimal operating system for running containerized workloads securely and at scale."
          }
        ]
      },
      {
        "label": "Emerging Editions",
        "description": "These editions are supported but not yet a part of the official Fedora editions.",
        "links": [
          {
            "label": "Silverblue",
            "path": "https://silverblue.fedoraproject.org/",
            "icon": "fa6-solid:desktop",
            "description": "Fedora Silverblue is an immutable desktop operating system aimed at good support for container-focused workflows."
          }
        ]
      },
      {
        "label": "Spins",
        "description": "The Desktop spins feature specific Linux Desktop Environments. Our official Workstation Edition uses the Gnome Desktop, but you can install Fedora preconfigured with any of the listed Desktop Environments.",
        "links": [
          {
            "label": "Fedora KDE",
            "path": "https://spins.fedoraproject.org/kde/",
            "icon": "fa6-solid:desktop",
            "description": "A complete, modern desktop built using the KDE Plasma Desktop Environment."
          },
          {
            "label": "Fedora XFCE",
            "path": "https://spins.fedoraproject.org/xfce/",
            "icon": "fa6-solid:desktop",
            "description": "A complete and well integrated desktop."
          },
          {
            "label": "Cinnamon Desktop",
            "path": "https://spins.fedoraproject.org/cinnamon/",
            "icon": "fa6-solid:desktop",
            "description": "A modern desktop featuring a traditional gnome user experience."
          },
          {
            "label": "Mate-Compiz Desktop",
            "path": "https://spins.fedoraproject.org/mate-compiz/",
            "icon": "fa6-solid:desktop",
            "description": "A classic Fedora desktop with an additional 3D window manager."
          },
          {
            "label": "i3 Tiling WM",
            "path": "https://spins.fedoraproject.org/i3/",
            "icon": "fa6-solid:desktop",
            "description": "Fedora Linux with the i3 Tiling Window Manager."
          },
          {
            "label": "LXQT Desktop",
            "path": "https://spins.fedoraproject.org/lxqt/",
            "icon": "fa6-solid:desktop",
            "description": "A lightweight and well intgrated LXQT desktop environment."
          },
          {
            "label": "LXDE Desktop",
            "path": "https://spins.fedoraproject.org/lxde/",
            "icon": "fa6-solid:desktop",
            "description": "A light, fast, and less resource hungry desktop environment"
          },
          {
            "label": "Kinoite",
            "path": "https://kinoite.fedoraproject.org/",
            "icon": "fa6-solid:desktop",
            "description": "Fedora Kinoite is an immutable KDE-based desktop."          }
        ]
      },
      {
        "label": "Labs",
        "description": "The Labs are Fedora Linux set up with software bundles based on particular topics.",
        "links": [
          {
            "label": "Astronomy",
            "path": "https://labs.fedoraproject.org/astronomy/",
            "icon": "fa6-solid:desktop",
            "description": "Powerful, completely open-source and free tools for amateur and professional astronomers."
          },
          {
            "label": "Comp Neuro",
            "path": "https://labs.fedoraproject.org/comp-neuro/",
            "icon": "fa6-solid:desktop",
            "description": "A plethora of Free/Open source computational modelling tools for Neuroscience."
          },
          {
            "label": "Design Suite",
            "path": "https://labs.fedoraproject.org/design-suite/",
            "icon": "fa6-solid:desktop",
            "description": "Visual design, multimedia production, and publishing suite of free and open source creative tools."
          },
          {
            "label": "Games",
            "path": "https://labs.fedoraproject.org/games",
            "icon": "fa6-solid:desktop",
            "description": "A collection and perfect showcase of the best games available in Fedora."
          },
          {
            "label": "Jam",
            "path": "https://labs.fedoraproject.org/jam/",
            "icon": "fa6-solid:desktop",
            "description": "For audio enthusiasts and musicians who want to create, edit, and produce audio and music on Linux."
          },
          {
            "label": "Python Classroom",
            "path": "https://labs.fedoraproject.org/python-classroom/",
            "icon": "fa6-solid:desktop",
            "description": "A classroom lab for teaching the Python programming language to students."
          },
          {
            "label": "Robotics Suite",
            "path": "https://labs.fedoraproject.org/robotics",
            "icon": "fa6-solid:desktop",
            "description": "A wide variety of free and open robotics software packages for beginners and experts."
          },
          {
            "label": "Scientific",
            "path": "https://labs.fedoraproject.org/scientific",
            "icon": "fa6-solid:desktop",
            "description": "A bundle of open source scientific and numerical tools used in research."
          },
          {
            "label": "Security Lab",
            "path": "https://labs.fedoraproject.org/security",
            "icon": "fa6-solid:desktop",
            "description": "A bundle of open source scientific and numerical tools used in research."
          }
        ]
      }
    ]
  },
  "community": {
    "label": "Communities",
    "icon": "fa6-solid:users",
    "description": "Our community links connect you with our communication platforms, articles, blog posts, and events.",
    "sections": [
      {
        "label": "Communications",
        "description": "Our community is big and there are many ways that we connect with one another.",
        "links": [
          {
            "label": "Community Blog",
            "path": "https://communityblog.fedoraproject.org/",
            "icon": "fa6-solid:desktop"
          },
          {
            "label": "Fedora Magazine",
            "path": "https://fedoramagazine.org/",
            "icon": "fa6-solid:desktop"
          },
          {
            "label": "Discussion Board",
            "path": "https://discussion.fedoraproject.org/",
            "icon": "fa6-solid:desktop"
          }
        ]
      },
      {
        "label": "Publications",
        "description": "The Fedora Project publishes content regularly in the Community Blog and Fedora Magazine. Stay up to date with the latest in the Fedora Community.",
        "links": []
      },
      {
        "label": "Events",
        "description": "From our release parties to our annual conference and more, Fedorans regularly come together to celebrate our community and the hard work that we put into it.",
        "links": [
          {
            "label": "Flock To Fedora",
            "path": "/flocktofedora",
            "icon": "fa6-solid:desktop"
          }
        ]
      },
      {
        "label": "Extended Community",
        "description": "Beyond the official channels for Fedorans to communicate, community members are involved on other popular platforms as well!",
        "links": [
          {
            "label": "Reddit",
            "path": "https://www.reddit.com/r/Fedora/",
            "icon": "fa6-solid:desktop"
          }
        ]
      }
    ]
  },
  "contributors": {
    "label": "Contributors",
    "icon": "fa6-solid:user",
    "description": "These pages connect you to all the different spaces that Fedorans work on projects. From new to long-term contributors, the following links will get you to where you want to go.",
    "sections": [
      {
        "label": "Coordination",
        "description": "General sites for getting involved and contributing to the Fedora Project.",
        "links": [
          { "label": "Join Fedora", "path": "#", "icon": "fa6-solid:desktop" },
          {
            "label": "Matrix Chat Server",
            "path": "#",
            "icon": "fa6-solid:desktop"
          },
          {
            "label": "Fedora Accounts",
            "path": "#",
            "icon": "fa6-solid:desktop"
          },
          {
            "label": "Developer Portal",
            "path": "#",
            "icon": "fa6-solid:desktop"
          },
          {
            "label": "Discussion Board",
            "path": "https://discussion.fedoraproject.org/",
            "icon": "fa6-solid:desktop"
          }
        ]
      },
      {
        "label": "Source Code",
        "description": "Our code can be found on the following Git Forges",
        "links": []
      },
      {
        "label": "Packaging",
        "description": "Our package maintainers build their code using koji and buildah. Check out these sources and file bugs with Bugzilla.",
        "links": []
      },
      {
        "label": "New Contributors",
        "description": "We are always excited to work with new contributors. If you're new to the project, check out these sites.",
        "links": []
      }
    ]
  },
  "support": {
    "label": "Support",
    "icon": "bi:life-preserver",
    "description": "An automatically-updating, minimal operating system for running containerized workloads securely and at scale.",
    "sections": [
      {
        "label": "User Support",
        "description": "These are support docs for end users.",
        "links": [
          {
            "label": "Ask Fedora",
            "path": "https://ask.fedoraproject.org/",
            "icon": "fa6-solid:desktop",
            "description": "Ask Fedora is a message board for getting help from the community.  you need help installing, using, or customizing Fedora Linux, or have any other questions about the operating system or the Fedora Project, you’ve come to the right place!"
          },
          {
            "label": "Documentation",
            "path": "https://docs.fedoraproject.org/",
            "icon": "fa6-solid:desktop"
          }
        ]
      },
      {
        "label": "Project Docs",
        "description": "These doc pages are about the Fedora Project. They cover our organizational structure, core values, teams, legal docs, and community guidelines.",
        "links": [
          {
            "label": "About",
            "path": "https://docs.fedoraproject.org/en-US/project/",
            "icon": "fa6-solid:desktop"
          }
        ]
      },
      {
        "label": "Other Support Sources",
        "description": "Over the years, Fedorans have created many sources of information for using our operating system. While these are not the official support sources, they are used and maintained by members of our community.",
        "links": []
      }
    ]
  }
}
